^C:\USERS\CZAJNUSX\DOCUMENTS\VISUAL STUDIO 2015\PROJECTS\LOSOWANIEKOSTEK\LOSOWANIEKOSTEK\STDAFX.CPP
C:\USERS\CZAJNUSX\DOCUMENTS\VISUAL STUDIO 2015\PROJECTS\LOSOWANIEKOSTEK\LOSOWANIEKOSTEK\DEBUG\LOSOWANIEKOSTEK.PCH
C:\USERS\CZAJNUSX\DOCUMENTS\VISUAL STUDIO 2015\PROJECTS\LOSOWANIEKOSTEK\LOSOWANIEKOSTEK\DEBUG\VC140.PDB
C:\USERS\CZAJNUSX\DOCUMENTS\VISUAL STUDIO 2015\PROJECTS\LOSOWANIEKOSTEK\LOSOWANIEKOSTEK\DEBUG\VC140.IDB
C:\USERS\CZAJNUSX\DOCUMENTS\VISUAL STUDIO 2015\PROJECTS\LOSOWANIEKOSTEK\LOSOWANIEKOSTEK\DEBUG\STDAFX.OBJ
^C:\USERS\CZAJNUSX\DOCUMENTS\VISUAL STUDIO 2015\PROJECTS\LOSOWANIEKOSTEK\LOSOWANIEKOSTEK\LOSOWANIEKOSTEK.CPP
C:\USERS\CZAJNUSX\DOCUMENTS\VISUAL STUDIO 2015\PROJECTS\LOSOWANIEKOSTEK\LOSOWANIEKOSTEK\DEBUG\VC140.PDB
C:\USERS\CZAJNUSX\DOCUMENTS\VISUAL STUDIO 2015\PROJECTS\LOSOWANIEKOSTEK\LOSOWANIEKOSTEK\DEBUG\VC140.IDB
C:\USERS\CZAJNUSX\DOCUMENTS\VISUAL STUDIO 2015\PROJECTS\LOSOWANIEKOSTEK\LOSOWANIEKOSTEK\DEBUG\LOSOWANIEKOSTEK.OBJ
